{
  "href": "https://api.spotify.com/v1/me/top/artists?offset=5&limit=10&time_range=medium_term&locale=en-US,en;q%3D0.9,pt;q%3D0.8,pt-BR;q%3D0.7",
  "limit": 10,
  "next": "https://api.spotify.com/v1/me/top/artists?offset=15&limit=10&time_range=medium_term&locale=en-US,en;q%3D0.9,pt;q%3D0.8,pt-BR;q%3D0.7",
  "offset": 5,
  "previous": "https://api.spotify.com/v1/me/top/artists?offset=0&limit=10&time_range=medium_term&locale=en-US,en;q%3D0.9,pt;q%3D0.8,pt-BR;q%3D0.7",
  "total": 20,
  "items": [
    {
      "external_urls": {
        "spotify": "https://open.spotify.com/artist/1q4618qKswelCGLoanFKQh"
      },
      "href": "https://api.spotify.com/v1/artists/1q4618qKswelCGLoanFKQh",
      "id": "1q4618qKswelCGLoanFKQh",
      "images": [
        {
          "url": "https://i.scdn.co/image/ab6761610000e5ebb36775ce5aa573ca9b33859f",
          "height": 640,
          "width": 640
        },
        {
          "url": "https://i.scdn.co/image/ab67616100005174b36775ce5aa573ca9b33859f",
          "height": 320,
          "width": 320
        },
        {
          "url": "https://i.scdn.co/image/ab6761610000f178b36775ce5aa573ca9b33859f",
          "height": 160,
          "width": 160
        }
      ],
      "name": "Joey Valence & Brae",
      "type": "artist",
      "uri": "spotify:artist:1q4618qKswelCGLoanFKQh"
    },
    {
      "external_urls": {
        "spotify": "https://open.spotify.com/artist/2yEwvVSSSUkcLeSTNyHKh8"
      },
      "href": "https://api.spotify.com/v1/artists/2yEwvVSSSUkcLeSTNyHKh8",
      "id": "2yEwvVSSSUkcLeSTNyHKh8",
      "images": [
        {
          "url": "https://i.scdn.co/image/ab6761610000e5eb13f5472b709101616c87cba3",
          "height": 640,
          "width": 640
        },
        {
          "url": "https://i.scdn.co/image/ab6761610000517413f5472b709101616c87cba3",
          "height": 320,
          "width": 320
        },
        {
          "url": "https://i.scdn.co/image/ab6761610000f17813f5472b709101616c87cba3",
          "height": 160,
          "width": 160
        }
      ],
      "name": "TOOL",
      "type": "artist",
      "uri": "spotify:artist:2yEwvVSSSUkcLeSTNyHKh8"
    },
    {
      "external_urls": {
        "spotify": "https://open.spotify.com/artist/7gdb1IQFHFQqCc5KoLTYNC"
      },
      "href": "https://api.spotify.com/v1/artists/7gdb1IQFHFQqCc5KoLTYNC",
      "id": "7gdb1IQFHFQqCc5KoLTYNC",
      "images": [
        {
          "url": "https://i.scdn.co/image/ab6761610000e5eb1359d08341c26bd15c4549e0",
          "height": 640,
          "width": 640
        },
        {
          "url": "https://i.scdn.co/image/ab676161000051741359d08341c26bd15c4549e0",
          "height": 320,
          "width": 320
        },
        {
          "url": "https://i.scdn.co/image/ab6761610000f1781359d08341c26bd15c4549e0",
          "height": 160,
          "width": 160
        }
      ],
      "name": "Model/Actriz",
      "type": "artist",
      "uri": "spotify:artist:7gdb1IQFHFQqCc5KoLTYNC"
    },
    {
      "external_urls": {
        "spotify": "https://open.spotify.com/artist/1oPRcJUkloHaRLYx0olBLJ"
      },
      "href": "https://api.spotify.com/v1/artists/1oPRcJUkloHaRLYx0olBLJ",
      "id": "1oPRcJUkloHaRLYx0olBLJ",
      "images": [
        {
          "url": "https://i.scdn.co/image/ab6761610000e5eb8257ff04aaf62d848030efeb",
          "height": 640,
          "width": 640
        },
        {
          "url": "https://i.scdn.co/image/ab676161000051748257ff04aaf62d848030efeb",
          "height": 320,
          "width": 320
        },
        {
          "url": "https://i.scdn.co/image/ab6761610000f1788257ff04aaf62d848030efeb",
          "height": 160,
          "width": 160
        }
      ],
      "name": "Magdalena Bay",
      "type": "artist",
      "uri": "spotify:artist:1oPRcJUkloHaRLYx0olBLJ"
    },
    {
      "external_urls": {
        "spotify": "https://open.spotify.com/artist/16eRpMNXSQ15wuJoeqguaB"
      },
      "href": "https://api.spotify.com/v1/artists/16eRpMNXSQ15wuJoeqguaB",
      "id": "16eRpMNXSQ15wuJoeqguaB",
      "images": [
        {
          "url": "https://i.scdn.co/image/ab6761610000e5eb81fb61484553c2a921f8a8c6",
          "height": 640,
          "width": 640
        },
        {
          "url": "https://i.scdn.co/image/ab6761610000517481fb61484553c2a921f8a8c6",
          "height": 320,
          "width": 320
        },
        {
          "url": "https://i.scdn.co/image/ab6761610000f17881fb61484553c2a921f8a8c6",
          "height": 160,
          "width": 160
        }
      ],
      "name": "The Flaming Lips",
      "type": "artist",
      "uri": "spotify:artist:16eRpMNXSQ15wuJoeqguaB"
    },
    {
      "external_urls": {
        "spotify": "https://open.spotify.com/artist/2sSGPbdZJkaSE2AbcGOACx"
      },
      "href": "https://api.spotify.com/v1/artists/2sSGPbdZJkaSE2AbcGOACx",
      "id": "2sSGPbdZJkaSE2AbcGOACx",
      "images": [
        {
          "url": "https://i.scdn.co/image/ab6761610000e5ebaf586afa2b397f1288683a76",
          "height": 640,
          "width": 640
        },
        {
          "url": "https://i.scdn.co/image/ab67616100005174af586afa2b397f1288683a76",
          "height": 320,
          "width": 320
        },
        {
          "url": "https://i.scdn.co/image/ab6761610000f178af586afa2b397f1288683a76",
          "height": 160,
          "width": 160
        }
      ],
      "name": "The Marías",
      "type": "artist",
      "uri": "spotify:artist:2sSGPbdZJkaSE2AbcGOACx"
    },
    {
      "external_urls": {
        "spotify": "https://open.spotify.com/artist/6FXMGgJwohJLUSr5nVlf9X"
      },
      "href": "https://api.spotify.com/v1/artists/6FXMGgJwohJLUSr5nVlf9X",
      "id": "6FXMGgJwohJLUSr5nVlf9X",
      "images": [
        {
          "url": "https://i.scdn.co/image/c8bbeedb05f38ae5cb982a7daf4bf7129cca892c",
          "height": 1335,
          "width": 1000
        },
        {
          "url": "https://i.scdn.co/image/52c2a824e84f4e8adf0b12418f9f8306b4b5b77a",
          "height": 855,
          "width": 640
        },
        {
          "url": "https://i.scdn.co/image/0d6b7677f8291c5158bdace8a6e027880c527c2a",
          "height": 267,
          "width": 200
        },
        {
          "url": "https://i.scdn.co/image/c055290bb6e97a589d8ca659cd452a8e9831c2c4",
          "height": 85,
          "width": 64
        }
      ],
      "name": "Massive Attack",
      "type": "artist",
      "uri": "spotify:artist:6FXMGgJwohJLUSr5nVlf9X"
    },
    {
      "external_urls": {
        "spotify": "https://open.spotify.com/artist/2wPDbhaGXCqROrVmwDdCrK"
      },
      "href": "https://api.spotify.com/v1/artists/2wPDbhaGXCqROrVmwDdCrK",
      "id": "2wPDbhaGXCqROrVmwDdCrK",
      "images": [
        {
          "url": "https://i.scdn.co/image/ab6761610000e5eb479c5d1829178f3c53a7e5e9",
          "height": 640,
          "width": 640
        },
        {
          "url": "https://i.scdn.co/image/ab67616100005174479c5d1829178f3c53a7e5e9",
          "height": 320,
          "width": 320
        },
        {
          "url": "https://i.scdn.co/image/ab6761610000f178479c5d1829178f3c53a7e5e9",
          "height": 160,
          "width": 160
        }
      ],
      "name": "Oneohtrix Point Never",
      "type": "artist",
      "uri": "spotify:artist:2wPDbhaGXCqROrVmwDdCrK"
    },
    {
      "external_urls": {
        "spotify": "https://open.spotify.com/artist/78rUTD7y6Cy67W1RVzYs7t"
      },
      "href": "https://api.spotify.com/v1/artists/78rUTD7y6Cy67W1RVzYs7t",
      "id": "78rUTD7y6Cy67W1RVzYs7t",
      "images": [
        {
          "url": "https://i.scdn.co/image/ab6761610000e5eb6bf10d74063b45938f5d8656",
          "height": 640,
          "width": 640
        },
        {
          "url": "https://i.scdn.co/image/ab676161000051746bf10d74063b45938f5d8656",
          "height": 320,
          "width": 320
        },
        {
          "url": "https://i.scdn.co/image/ab6761610000f1786bf10d74063b45938f5d8656",
          "height": 160,
          "width": 160
        }
      ],
      "name": "PinkPantheress",
      "type": "artist",
      "uri": "spotify:artist:78rUTD7y6Cy67W1RVzYs7t"
    },
    {
      "external_urls": {
        "spotify": "https://open.spotify.com/artist/2uOlKKhuUUWlTITCYYUuIK"
      },
      "href": "https://api.spotify.com/v1/artists/2uOlKKhuUUWlTITCYYUuIK",
      "id": "2uOlKKhuUUWlTITCYYUuIK",
      "images": [
        {
          "url": "https://i.scdn.co/image/ab6761610000e5ebcc68f40b150c723cc9e13257",
          "height": 640,
          "width": 640
        },
        {
          "url": "https://i.scdn.co/image/ab67616100005174cc68f40b150c723cc9e13257",
          "height": 320,
          "width": 320
        },
        {
          "url": "https://i.scdn.co/image/ab6761610000f178cc68f40b150c723cc9e13257",
          "height": 160,
          "width": 160
        }
      ],
      "name": "Pablo",
      "type": "artist",
      "uri": "spotify:artist:2uOlKKhuUUWlTITCYYUuIK"
    }
  ]
}
